{
    "data": [
        {
            "id": 75450,
            "name": "kanban",
            "path": "kanban",
            "owner_id": null
        },
        {
            "id": 55680,
            "name": "group1",
            "path": "group1",
            "owner_id": null
        }
    ]
}
