{
    "data": [
        {
            "id": 14570,
            "title": "Number 2",
            "state": "active"
        },
        {
            "id": 14569,
            "title": "Super milestone",
            "state": "active"
        }
    ]
}
